{
  "db_name": "PostgreSQL",
  "query": "\nDELETE FROM measurement\nWHERE interval_border >= $1\n    AND msrmnt_dt_utc < $2 ;\n                        ",
  "describe": {
    "columns": [],
    "parameters": {
      "Left": [
        "Int2",
        "Timestamp"
      ]
    },
    "nullable": []
  },
  "hash": "8feebceef1be281fed110e49db32969d682932024794d09c2dbffad5f6ce127c"
}
