{
  "db_name": "PostgreSQL",
  "query": " INSERT INTO measurement (\n                    equipment_ean_combi,\n                    msrmnt_dt_utc,\n                    msrmnt_value,\n                    msrmnt_type,\n                    interval_border)\n            VALUES ($1, $2, $3, $4, $5) ;",
  "describe": {
    "columns": [],
    "parameters": {
      "Left": [
        "Int2",
        "Timestamp",
        "Numeric",
        "Int2",
        "Int2"
      ]
    },
    "nullable": []
  },
  "hash": "c7360eaf7fd21ef91c3b26f859732317810c3e1d171bc0cec94621ed972207c1"
}
