{
  "db_name": "PostgreSQL",
  "query": " SELECT\n                  equipment_ean_combi,\n                  equipment_id,\n                  installation_dt_utc,\n                  grid_connection_ean\n                FROM equipment_ean\n                WHERE equipment_id = $1 ; ",
  "describe": {
    "columns": [
      {
        "ordinal": 0,
        "name": "equipment_ean_combi",
        "type_info": "Int2"
      },
      {
        "ordinal": 1,
        "name": "equipment_id",
        "type_info": "Varchar"
      },
      {
        "ordinal": 2,
        "name": "installation_dt_utc",
        "type_info": "Timestamp"
      },
      {
        "ordinal": 3,
        "name": "grid_connection_ean",
        "type_info": "Varchar"
      }
    ],
    "parameters": {
      "Left": [
        "Text"
      ]
    },
    "nullable": [
      false,
      false,
      false,
      false
    ]
  },
  "hash": "1891aa426b08fa545b3ee423ec53731f770fccd0b6bebe68c2deb1355bc0dd98"
}
